*Heading
** Job name: rect_plate_wo_hole_4_elements Model name: Model-1
** Generated by: Abaqus/CAE 6.13-4
*Preprint, echo=NO, model=NO, history=NO, contact=NO
**
** PARTS
**
*Part, name=plate
*Node
      1,          0.5,          0.5
      2,           0.,          0.5
      3,         -0.5,          0.5
      4,          0.5,           0.
      5,           0.,           0.
      6,         -0.5,           0.
      7,          0.5,         -0.5
      8,           0.,         -0.5
      9,         -0.5,         -0.5
     10,         0.25,          0.5
     11,           0.,         0.25
     12,         0.25,           0.
     13,          0.5,         0.25
     14,        -0.25,          0.5
     15,         -0.5,         0.25
     16,        -0.25,           0.
     17,           0.,        -0.25
     18,         0.25,         -0.5
     19,          0.5,        -0.25
     20,         -0.5,        -0.25
     21,        -0.25,         -0.5
*Element, type=CPS8R
1,  1,  2,  5,  4, 10, 11, 12, 13
2,  2,  3,  6,  5, 14, 15, 16, 11
3,  4,  5,  8,  7, 12, 17, 18, 19
4,  5,  6,  9,  8, 16, 20, 21, 17
*Nset, nset=Set-3, generate
  1,  21,   1
*Elset, elset=Set-3, generate
 1,  4,  1
** Section: Section-1
*Solid Section, elset=Set-3, material=Material-1
,
*End Part
**  
**
** ASSEMBLY
**
*Assembly, name=Assembly
**  
*Instance, name=plate-1, part=plate
*End Instance
**  
*End Assembly
** 
** MATERIALS
** 
*Material, name=Material-1
*Conductivity
1.,
