*Heading
** Job name: plate_hole_3_tri Model name: Model-1
** Generated by: Abaqus/CAE 6.13-4
*Preprint, echo=NO, model=NO, history=NO, contact=NO
**
** PARTS
**
*Part, name=Part-1
*Node
      1, -0.0956708565,  0.230969876
      2, -0.176776692,  0.176776692
      3, -0.230969876, 0.0956708565
      4,        -0.25,           0.
      5, -0.230969876, -0.0956708565
      6, -0.176776692, -0.176776692
      7, -0.0956708565, -0.230969876
      8,           0.,        -0.25
      9, 0.0956708565, -0.230969876
     10,  0.176776692, -0.176776692
     11,  0.230969876, -0.0956708565
     12,         0.25,           0.
     13,  0.230969876, 0.0956708565
     14,  0.176776692,  0.176776692
     15, 0.0956708565,  0.230969876
     16,           0.,         0.25
     17,          0.5,          0.5
     18,         -0.5,          0.5
     19,         -0.5,         -0.5
     20,          0.5,         -0.5
     21,  0.400000006,          0.5
     22,  0.300000012,          0.5
     23,  0.200000003,          0.5
     24,  0.100000001,          0.5
     25,           0.,          0.5
     26, -0.100000001,          0.5
     27, -0.200000003,          0.5
     28, -0.300000012,          0.5
     29, -0.400000006,          0.5
     30,         -0.5,  0.400000006
     31,         -0.5,  0.300000012
     32,         -0.5,  0.200000003
     33,         -0.5,  0.100000001
     34,         -0.5,           0.
     35,         -0.5, -0.100000001
     36,         -0.5, -0.200000003
     37,         -0.5, -0.300000012
     38,         -0.5, -0.400000006
     39, -0.400000006,         -0.5
     40, -0.300000012,         -0.5
     41, -0.200000003,         -0.5
     42, -0.100000001,         -0.5
     43,           0.,         -0.5
     44,  0.100000001,         -0.5
     45,  0.200000003,         -0.5
     46,  0.300000012,         -0.5
     47,  0.400000006,         -0.5
     48,          0.5, -0.400000006
     49,          0.5, -0.300000012
     50,          0.5, -0.200000003
     51,          0.5, -0.100000001
     52,          0.5,           0.
     53,          0.5,  0.100000001
     54,          0.5,  0.200000003
     55,          0.5,  0.300000012
     56,          0.5,  0.400000006
     57, -0.0719748214,  0.335542768
     58, -0.332653642, 0.0507673882
     59, -0.185595438, -0.281363368
     60, -0.322552502, -0.0885966793
     61, -0.261836499, -0.191086441
     62, -0.187770501,  0.264269531
     63, -0.283204705,  0.181870982
     64,  0.263203561,  0.187444389
     65,  0.281077117,  -0.18521294
     66,  0.334905773, 0.0724603832
     67, -0.0665994361, -0.317021161
     68, 0.0724390224, -0.334983736
     69,  0.187482134, -0.264448315
     70,  0.317763776, -0.0655422434
     71,  0.184218258,  0.280648321
     72, 0.0654090717,  0.317871362
     73,  0.413476944, -0.0312208477
     74, -0.153309047, -0.395197421
     75, -0.416844338, -0.0386997759
     76, -0.145104662,  0.422830582
     77, 0.0313856304,  0.413866341
     78,  0.152052835,  0.395230383
     79, -0.0571387708,  0.434447944
     80, -0.250720143,  0.416046321
     81, -0.361897349,  0.410753131
     82, -0.400489151,  0.152903289
     83, -0.429997414, 0.0529941805
     84, -0.417449564, -0.145754457
     85, -0.414754122, -0.251741618
     86, -0.410594463, -0.362113297
     87, -0.0317020603,  -0.41310218
     88, 0.0575146452, -0.433984131
     89,  0.145392939, -0.423067153
     90,  0.250816047, -0.416315287
     91,  0.361890763, -0.410886049
     92,  0.395716637, -0.152540371
     93,  0.433986306, 0.0577300377
     94,  0.422141671,  0.146140903
     95,  0.414532423,  0.250629038
     96,  0.409072101,  0.361739337
     97,  0.410790414,  -0.25472039
     98,  0.415850908, -0.334827393
     99, -0.254934281, -0.410779536
    100, -0.334761828, -0.415976167
    101, -0.411768734,  0.254544646
    102, -0.416063994,  0.334665328
    103,  0.253389597,  0.410305768
    104,  0.306095034, -0.305425942
    105, -0.304600596, -0.307340622
    106, -0.306612879,   0.30468294
    107,  0.348419815, -0.224474907
    108, -0.350518882,   0.22350046
    109, -0.224609837, -0.348670244
    110,  0.223789901,  0.347887665
    111,  0.303828239,   0.30574429
    112,  0.333258003,  0.415557891
    113,  0.347722322,  0.192483798
    114, -0.344238669, -0.196903959
    115,   0.19244504, -0.348848075
    116, -0.192436606,  0.348674417
    117,  0.226694793,  0.455152869
    118,  0.176026419,  0.447615206
    119,  0.202721208,  0.402768075
    120,  0.418337047,   0.19838497
    121,  0.461070836,  0.173070461
    122,  0.457266212,  0.225314528
    123,  0.378523707,  0.109300643
    124,  0.384446025, 0.0650952086
    125,  0.428063989,  0.101935469
    126,  0.374191344, 0.0206197686
    127,  0.326334774, 0.00345906988
    128,  0.365620375, -0.0483815446
    129,  0.372068226, -0.188507646
    130,  0.338396877, -0.168876648
    131,  0.314748466, -0.204843923
    132,  0.455395222, -0.227360189
    133,  0.447858334, -0.176270187
    134,  0.403253525, -0.203630388
    135,  0.333992898, -0.358155996
    136,  0.388870835, -0.372856736
    137,  0.360972971, -0.320126653
    138,  0.327257425, -0.264950424
    139,  0.358442724, -0.280073166
    140,  0.379605114, -0.239597648
    141,  0.198104501, -0.419691205
    142,  0.172696471, -0.461533576
    143,  0.225408018, -0.458157659
    144, -0.109954238, -0.356109291
    145, -0.126097441,  -0.29919225
    146,  -0.16945225,  -0.33828038
    147, -0.227467149, -0.455389768
    148, -0.176654518, -0.447598696
    149, -0.204121664, -0.402988493
    150,  -0.35759753, -0.334726959
    151, -0.372678161, -0.389044732
    152, -0.319681227, -0.361658394
    153, -0.264605224, -0.328005433
    154, -0.279767454, -0.359060079
    155, -0.239772052,  -0.37972489
    156, -0.416101843, -0.198748037
    157, -0.458724797, -0.172877222
    158, -0.457377076, -0.225870818
    159, -0.417146951, -0.0922271162
    160, -0.458422184, -0.069349885
    161, -0.458724797, -0.122877225
    162, -0.381325543, 0.0518807843
    163, -0.366571397,   0.10183534
    164, -0.415243268,  0.102948733
    165, -0.249524742,  0.326678693
    166, -0.247191697,  0.284476221
    167, -0.190103561,  0.306471974
    168, -0.455884367,  0.227272332
    169, -0.450244576,  0.176451653
    170, -0.406128943,  0.203723967
    171, -0.334255099,   0.35771805
    172, -0.388980687,  0.372709215
    173, -0.361338437,  0.319674134
    174,  -0.13220571,  0.342108607
    175, -0.108539745,   0.37918669
    176, -0.168770641,  0.385752499
    177, -0.0202945955,   0.37470454
    178, -0.00328287482,  0.326707065
    179, 0.0483973511,  0.365868866
    180,  0.325775266,  0.249114037
    181,    0.2835159,   0.24659434
    182,  0.305462956,  0.189964086
    183,  0.238589749,  0.379096717
    184,  0.187921375,  0.371559024
    185, 0.0917192325,  0.404548347
    186,  0.108730957,  0.356550872
    187, 0.0805399641,  0.274420619
    188,  0.139944553,  0.255809098
    189,  0.124813661,  0.299259841
    190, -0.0645567924,  0.384995341
    191, -0.0128765702,  0.424157143
    192, -0.0359874107,  0.292771399
    193, 0.0327045359,  0.283935666
    194, -0.141720682,  0.247619703
    195, -0.083822839,  0.283256322
    196, -0.129872665,  0.299906135
    197, -0.306308746,  0.413399726
    198, -0.275360078,  0.458023161
    199, -0.330948681,  0.455376565
    200, -0.328565896,    0.2640917
    201, -0.359190822,  0.279613793
    202, -0.381143808,  0.239022553
    203, -0.449999988,  0.449999988
    204, -0.449999988,          0.5
    205,         -0.5,  0.449999988
    206, -0.375504017,  0.188201874
    207, -0.341846943,  0.167387128
    208, -0.316861808,  0.202685714
    209, -0.450244576,  0.126451641
    210, -0.464998722, 0.0764970928
    211, -0.423420876, 0.00714720227
    212, -0.374749005, 0.00603380613
    213, -0.286276251, -0.0442983396
    214, -0.291326821, 0.0253836941
    215, -0.327603072, -0.0189146455
    216,   -0.3333956, -0.142750323
    217, -0.370001018, -0.117175564
    218, -0.380844116,   -0.1713292
    219, -0.324419618, -0.252122283
    220, -0.283218563, -0.249213532
    221, -0.303037584, -0.193995208
    222, -0.412674308, -0.306927443
    223, -0.457377076,   -0.2758708
    224, -0.455297232, -0.331056654
    225, -0.449999988, -0.449999988
    226,         -0.5, -0.449999988
    227, -0.449999988,         -0.5
    228,  -0.18895945, -0.371933818
    229, -0.205102637, -0.315016806
    230,  -0.04915075, -0.365061671
    231, -0.0925055519, -0.404149801
    232, 0.0649768338, -0.384483933
    233, 0.0203684811, -0.374042958
    234, 0.0129062925, -0.423543155
    235, 0.00291979313, -0.326002449
    236, 0.0362195112, -0.292491853
    237, -0.0332997181, -0.283510566
    238,  0.132442027, -0.341915905
    239,  0.108915985, -0.379025459
    240,  0.168918997, -0.385957599
    241,  0.249270037, -0.327136993
    242,  0.246788591, -0.284937143
    243,  0.189963579, -0.306648195
    244,   0.30635339, -0.413600683
    245,   0.27540803, -0.458157659
    246,  0.330945373, -0.455443025
    247,  0.449999988, -0.449999988
    248,  0.449999988,         -0.5
    249,          0.5, -0.449999988
    250,  0.404596806, -0.0918806121
    251,  0.356740206, -0.109041303
    252,  0.274366826,  -0.08060655
    253,  0.256023496, -0.140441895
    254,  0.299420446, -0.125377595
    255,  0.423731625,  0.013254595
    256,  0.341314048,  0.132472098
    257,  0.384931982,  0.169312358
    258,  0.411802262,  0.306184173
    259,  0.457266212,   0.27531451
    260,  0.454536051,  0.330869675
    261,  0.263809085,  0.326815963
    262,  0.204004079,  0.314267993
    263,  0.244023249,  0.293196321
    264,  0.454536051,  0.380869687
    265,  0.449999988,  0.449999988
    266,  0.404536068,  0.430869669
    267,          0.5,  0.449999988
    268,  0.449999988,          0.5
    269, -0.122552335,  0.461415291
    270, -0.150000006,          0.5
    271, -0.172552332,  0.461415291
    272, -0.0487725809,  0.245196313
    273, -0.245196313, 0.0487725809
    274, -0.281811774, 0.0732191205
    275, -0.307929158,  0.116319187
    276,  -0.25708729,  0.138770923
    277, -0.140633151, -0.256166637
    278, -0.138892561, -0.207867399
    279, -0.181186065, -0.229070038
    280, -0.223715961, -0.236224905
    281, -0.219306588, -0.183931559
    282, -0.276761174, -0.0921337679
    283, -0.245196313, -0.0487725809
    284, -0.369698405, -0.0636482239
    285, -0.207867399, -0.138892561
    286, -0.246403188, -0.143378645
    287, -0.292194486, -0.139841557
    288, -0.197912395,  0.419438452
    289, -0.225360066,  0.458023161
    290, -0.182273597,  0.220523119
    291, -0.138892561,  0.207867399
    292, -0.207867399,  0.138892561
    293, -0.229990691,  0.179323837
    294,  -0.23548761,  0.223070264
    295,  0.219990134,  0.182110548
    296,  0.207867399,  0.138892561
    297,  0.247086719,  0.141557619
    298,  0.299054682,  0.129952386
    299,  0.282937825, 0.0840656161
    300,  0.207867399, -0.138892561
    301,  0.228926897, -0.180994809
    302,  0.234279633, -0.224830627
    303,  0.182129413, -0.220612496
    304,  0.245196313, 0.0487725809
    305,  0.292452872, 0.0362301916
    306,  0.283881903, -0.0327711217
    307, -0.0487725809, -0.245196313
    308, -0.0811351463, -0.273995519
    309,  0.101453796, -0.428525627
    310, 0.0787573233,  -0.46699208
    311,  0.122696474, -0.461533576
    312, 0.0840549394, -0.282976806
    313, 0.0487725809, -0.245196313
    314,  0.138892561, -0.207867399
    315,  0.141576499, -0.247709095
    316,  0.129960582, -0.299716026
    317,  0.245196313, -0.0487725809
    318,  0.138892561,  0.207867399
    319,  0.180497468,  0.228712499
    320,  0.223710909,  0.234046355
    321,  0.168135554,  0.337939352
    322, 0.0487725809,  0.245196313
    323,  0.456738472, -0.0656104237
    324,          0.5, -0.0500000007
    325,  0.456738472, -0.0156104239
    326,  0.466993153, 0.0288650189
    327, -0.150000006,         -0.5
    328, -0.126654521, -0.447598696
    329, -0.0658510327, -0.456551075
    330, -0.458422184, -0.019349888
    331,         -0.5, -0.0500000007
    332,         -0.5, -0.150000006
    333, -0.101121716,  0.428639263
    334,        -0.25,          0.5
    335, 0.0656928122,  0.456933171
    336, 0.0500000007,          0.5
    337, 0.0156928152,  0.456933171
    338, -0.0285693854,  0.467223972
    339,  0.150000006,          0.5
    340,  0.126026422,  0.447615206
    341, -0.0500000007,          0.5
    342, -0.0785693824,  0.467223972
    343, -0.350000024,          0.5
    344, -0.380948663,  0.455376565
    345, -0.221578375,  0.382360369
    346, -0.278666496,  0.360364616
    347, -0.430948675,  0.405376554
    348, -0.458032012,  0.367332667
    349,         -0.5,  0.350000024
    350, -0.458032012,  0.317332685
    351,         -0.5,  0.150000006
    352,         -0.5, 0.0500000007
    353, -0.464998722, 0.0264970902
    354,         -0.5,        -0.25
    355,         -0.5, -0.350000024
    356, -0.455297232, -0.381056666
    357, -0.379496396, -0.224322796
    358, -0.359677374, -0.279541135
    359,  -0.40529722, -0.431056648
    360, -0.367380917, -0.457988083
    361, -0.350000024,         -0.5
    362, -0.317380905, -0.457988083
    363, -0.0500000007,         -0.5
    364, -0.0158510301, -0.456551075
    365, 0.0287573226,  -0.46699208
    366, 0.0500000007,         -0.5
    367,  0.150000006,         -0.5
    368,         0.25,         -0.5
    369,  0.350000024,         -0.5
    370,  0.380945385, -0.455443025
    371,  0.221630543, -0.382581681
    372,  0.278455555,   -0.3608706
    373,  0.430945396, -0.405443013
    374,  0.457925439,   -0.3674137
    375,          0.5, -0.350000024
    376,  0.457925439, -0.317413688
    377,          0.5, -0.150000006
    378,  0.447858334,  -0.12627019
    379,          0.5, 0.0500000007
    380,  0.466993153, 0.0788650215
    381,  0.461070836,  0.123070449
    382,          0.5,  0.150000006
    383,          0.5,         0.25
    384,          0.5,  0.350000024
    385,  0.381127357,  0.221556425
    386,  0.359180331,  0.278186679
    387,  0.366629004,  0.457778931
    388,  0.350000024,          0.5
    389,  0.316628993,  0.457778931
    390,  0.293323815,   0.41293183
    391,  0.278608918,  0.358025014
    392,  0.318543136,  0.360651076
    393,  0.413320661, -0.294773877
    394,  0.455395222, -0.277360201
    395,          0.5,        -0.25
    396, -0.294848055, -0.413377851
    397, -0.277467132, -0.455389768
    398,        -0.25,         -0.5
    399, -0.413916349,  0.294604987
    400, -0.455884367,  0.277272344
    401,         -0.5,         0.25
    402,  0.276694804,  0.455152869
    403,         0.25,          0.5
    404,  0.293586075, -0.245319441
    405, -0.245098025, -0.294351995
    406, -0.294908792,  0.243276954
    407,   0.35645017,  0.333741814
    408,  0.371165037,  0.388648629
*Element, type=CPS6M
  1, 103,  23,  78, 117, 118, 119
  2,  95,  94,  54, 120, 121, 122
  3,  94,  66,  93, 123, 124, 125
  4,  73,  66,  70, 126, 127, 128
  5, 107,  92,  65, 129, 130, 131
  6,  97,  50,  92, 132, 133, 134
  7, 104,  91,  98, 135, 136, 137
  8, 107, 104,  97, 138, 139, 140
  9,  90,  89,  45, 141, 142, 143
 10,  74,  67,  59, 144, 145, 146
 11,  99,  41,  74, 147, 148, 149
 12, 105,  86, 100, 150, 151, 152
 13, 109, 105,  99, 153, 154, 155
 14,  85,  84,  36, 156, 157, 158
 15,  84,  75,  35, 159, 160, 161
 16,  83,  58,  82, 162, 163, 164
 17, 116, 106,  62, 165, 166, 167
 18, 101,  32,  82, 168, 169, 170
 19, 106,  81, 102, 171, 172, 173
 20, 116,  57,  76, 174, 175, 176
 21,  77,  57,  72, 177, 178, 179
 22, 113, 111,  64, 180, 181, 182
 23, 110, 103,  78, 183, 119, 184
 24,  78,  77,  72, 185, 179, 186
 25,  72,  15,  71, 187, 188, 189
 26,  79,  57,  77, 190, 177, 191
 27,  72,  57,  16, 178, 192, 193
 28,  62,   1,  57, 194, 195, 196
 29,  81,  80,  28, 197, 198, 199
 30, 108, 106, 101, 200, 201, 202
 31,  30,  29,  18, 203, 204, 205
 32, 108,  82,  63, 206, 207, 208
 33,  83,  82,  33, 164, 209, 210
 34,  83,  75,  58, 211, 212, 162
 35,  60,   4,  58, 213, 214, 215
 36, 114,  60,  84, 216, 217, 218
 37, 114, 105,  61, 219, 220, 221
 38,  86,  85,  37, 222, 223, 224
 39,  39,  38,  19, 225, 226, 227
 40, 109,  74,  59, 228, 146, 229
 41,  87,  67,  74, 230, 144, 231
 42,  88,  68,  87, 232, 233, 234
 43,  87,  68,  67, 233, 235, 230
 44,  68,   8,  67, 236, 237, 235
 45, 115,  68,  89, 238, 239, 240
 46, 115, 104,  69, 241, 242, 243
 47,  91,  90,  46, 244, 245, 246
 48,  48,  47,  20, 247, 248, 249
 49,  92,  73,  70, 250, 128, 251
 50,  70,  11,  65, 252, 253, 254
 51,  93,  66,  73, 124, 126, 255
 52, 113,  66,  94, 256, 123, 257
 53,  96,  95,  55, 258, 259, 260
 54, 111, 110,  71, 261, 262, 263
 55,  96,  56,  21, 264, 265, 266
 56,  56,  17,  21, 267, 268, 265
 57,  76,  26,  27, 269, 270, 271
 58,  57,   1,  16, 195, 272, 192
 59,  58,   4,   3, 214, 273, 274
 60,  63,  58,   3, 275, 274, 276
 61,  59,   7,   6, 277, 278, 279
 62,  61,  59,   6, 280, 279, 281
 63,  60,   5,   4, 282, 283, 213
 64,  75,  60,  58, 284, 215, 212
 65,  61,   6,   5, 281, 285, 286
 66,  61,   5,  60, 286, 282, 287
 67,  80,  76,  27, 288, 271, 289
 68,  62,   2,   1, 290, 291, 194
 69,  63,   3,   2, 276, 292, 293
 70,  63,   2,  62, 293, 290, 294
 71,  64,  14,  13, 295, 296, 297
 72,  66,  64,  13, 298, 297, 299
 73,  65,  11,  10, 253, 300, 301
 74,  69,  65,  10, 302, 301, 303
 75,  66,  13,  12, 299, 304, 305
 76,  70,  66,  12, 127, 305, 306
 77,  67,   8,   7, 237, 307, 308
 78,  67,   7,  59, 308, 277, 145
 79,  89,  88,  44, 309, 310, 311
 80,  68,   9,   8, 312, 313, 236
 81,  69,  10,   9, 303, 314, 315
 82,  69,   9,  68, 315, 312, 316
 83,  92,  70,  65, 251, 254, 130
 84,  70,  12,  11, 306, 317, 252
 85,  71,  15,  14, 188, 318, 319
 86,  71,  14,  64, 319, 295, 320
 87,  78,  72,  71, 186, 189, 321
 88,  72,  16,  15, 193, 322, 187
 89,  73,  51,  52, 323, 324, 325
 90,  93,  73,  52, 255, 325, 326
 91,  74,  41,  42, 148, 327, 328
 92,  87,  74,  42, 231, 328, 329
 93,  75,  34,  35, 330, 331, 160
 94,  84,  35,  36, 161, 332, 157
 95,  79,  76,  57, 333, 175, 190
 96,  80,  27,  28, 289, 334, 198
 97,  77,  24,  25, 335, 336, 337
 98,  79,  77,  25, 191, 337, 338
 99,  78,  23,  24, 118, 339, 340
100,  78,  24,  77, 340, 335, 185
101,  79,  25,  26, 338, 341, 342
102,  79,  26,  76, 342, 269, 333
103,  81,  28,  29, 199, 343, 344
104, 116,  80, 106, 345, 346, 165
105,  81,  29,  30, 344, 203, 347
106, 102,  30,  31, 348, 349, 350
107,  82,  32,  33, 169, 351, 209
108,  82,  58,  63, 163, 275, 207
109,  83,  33,  34, 210, 352, 353
110,  83,  34,  75, 353, 330, 211
111,  84,  60,  75, 217, 284, 159
112,  85,  36,  37, 158, 354, 223
113,  86,  37,  38, 224, 355, 356
114, 114,  85, 105, 357, 358, 219
115,  86,  38,  39, 356, 225, 359
116, 100,  39,  40, 360, 361, 362
117,  87,  42,  43, 329, 363, 364
118,  88,  87,  43, 234, 364, 365
119,  88,  43,  44, 365, 366, 310
120,  89,  44,  45, 311, 367, 142
121,  89,  68,  88, 239, 232, 309
122,  90,  45,  46, 143, 368, 245
123,  91,  46,  47, 246, 369, 370
124, 115,  90, 104, 371, 372, 241
125,  91,  47,  48, 370, 247, 373
126,  98,  48,  49, 374, 375, 376
127,  92,  50,  51, 133, 377, 378
128,  92,  51,  73, 378, 323, 250
129,  93,  52,  53, 326, 379, 380
130,  94,  93,  53, 125, 380, 381
131,  94,  53,  54, 381, 382, 121
132,  95,  54,  55, 122, 383, 259
133,  96,  55,  56, 260, 384, 264
134, 113,  95, 111, 385, 386, 180
135, 112,  21,  22, 387, 388, 389
136, 112, 103, 111, 390, 391, 392
137, 104,  98,  97, 137, 393, 139
138,  97,  49,  50, 394, 395, 132
139,  98,  91,  48, 136, 373, 374
140,  98,  49,  97, 376, 394, 393
141, 105, 100,  99, 152, 396, 154
142,  99,  40,  41, 397, 398, 147
143, 100,  86,  39, 151, 359, 360
144, 100,  40,  99, 362, 397, 396
145, 106, 102, 101, 173, 399, 201
146, 101,  31,  32, 400, 401, 168
147, 102,  81,  30, 172, 347, 348
148, 102,  31, 101, 350, 400, 399
149, 103,  22,  23, 402, 403, 117
150, 110,  78,  71, 184, 321, 262
151, 104,  65,  69, 404, 302, 242
152, 104,  90,  91, 372, 244, 135
153, 105,  59,  61, 405, 280, 220
154, 105,  85,  86, 358, 222, 150
155, 106,  63,  62, 406, 294, 166
156, 106,  80,  81, 346, 197, 171
157, 107,  97,  92, 140, 134, 129
158, 107,  65, 104, 131, 404, 138
159, 108, 101,  82, 202, 170, 206
160, 108,  63, 106, 208, 406, 200
161, 109,  99,  74, 155, 149, 228
162, 109,  59, 105, 229, 405, 153
163, 111,  71,  64, 263, 320, 181
164, 111, 103, 110, 391, 183, 261
165, 111,  95,  96, 386, 258, 407
166, 112, 111,  96, 392, 407, 408
167, 112,  96,  21, 408, 266, 387
168, 112,  22, 103, 389, 402, 390
169, 113,  64,  66, 182, 298, 256
170, 113,  94,  95, 257, 120, 385
171, 114,  61,  60, 221, 287, 216
172, 114,  84,  85, 218, 156, 357
173, 115,  69,  68, 243, 316, 238
174, 115,  89,  90, 240, 141, 371
175, 116,  62,  57, 167, 196, 174
176, 116,  76,  80, 176, 288, 345
*Nset, nset=Set-4, generate
   1,  408,    1
*Elset, elset=Set-4, generate
   1,  176,    1
*Nset, nset=Set-5, generate
   1,  408,    1
*Elset, elset=Set-5, generate
   1,  176,    1
** Section: Section-1
*Solid Section, elset=Set-5, material=Material-1
,
*End Part
**  
**
** ASSEMBLY
**
*Assembly, name=Assembly
**  
*Instance, name=Part-1-1, part=Part-1
*End Instance
**  
*End Assembly
** 
** MATERIALS
** 
*Material, name=Material-1
*Conductivity
1.,
