*Heading
** Job name: rect_plate_wo_hole_q2_25 Model name: Model-1
** Generated by: Abaqus/CAE 6.13-4
*Preprint, echo=NO, model=NO, history=NO, contact=NO
**
** PARTS
**
*Part, name=plate
*Node
      1,          0.5,          0.5
      2,  0.300000012,          0.5
      3,  0.100000001,          0.5
      4, -0.100000001,          0.5
      5, -0.300000012,          0.5
      6,         -0.5,          0.5
      7,          0.5,  0.300000012
      8,  0.300000012,  0.300000012
      9,  0.100000001,  0.300000012
     10, -0.100000001,  0.300000012
     11, -0.300000012,  0.300000012
     12,         -0.5,  0.300000012
     13,          0.5,  0.100000001
     14,  0.300000012,  0.100000001
     15,  0.100000001,  0.100000001
     16, -0.100000001,  0.100000001
     17, -0.300000012,  0.100000001
     18,         -0.5,  0.100000001
     19,          0.5, -0.100000001
     20,  0.300000012, -0.100000001
     21,  0.100000001, -0.100000001
     22, -0.100000001, -0.100000001
     23, -0.300000012, -0.100000001
     24,         -0.5, -0.100000001
     25,          0.5, -0.300000012
     26,  0.300000012, -0.300000012
     27,  0.100000001, -0.300000012
     28, -0.100000001, -0.300000012
     29, -0.300000012, -0.300000012
     30,         -0.5, -0.300000012
     31,          0.5,         -0.5
     32,  0.300000012,         -0.5
     33,  0.100000001,         -0.5
     34, -0.100000001,         -0.5
     35, -0.300000012,         -0.5
     36,         -0.5,         -0.5
     37,  0.400000006,          0.5
     38,  0.300000012,  0.400000006
     39,  0.400000006,  0.300000012
     40,          0.5,  0.400000006
     41,  0.200000003,          0.5
     42,  0.100000001,  0.400000006
     43,  0.200000003,  0.300000012
     44,           0.,          0.5
     45, -0.100000001,  0.400000006
     46,           0.,  0.300000012
     47, -0.200000003,          0.5
     48, -0.300000012,  0.400000006
     49, -0.200000003,  0.300000012
     50, -0.400000006,          0.5
     51,         -0.5,  0.400000006
     52, -0.400000006,  0.300000012
     53,  0.300000012,  0.200000003
     54,  0.400000006,  0.100000001
     55,          0.5,  0.200000003
     56,  0.100000001,  0.200000003
     57,  0.200000003,  0.100000001
     58, -0.100000001,  0.200000003
     59,           0.,  0.100000001
     60, -0.300000012,  0.200000003
     61, -0.200000003,  0.100000001
     62,         -0.5,  0.200000003
     63, -0.400000006,  0.100000001
     64,  0.300000012,           0.
     65,  0.400000006, -0.100000001
     66,          0.5,           0.
     67,  0.100000001,           0.
     68,  0.200000003, -0.100000001
     69, -0.100000001,           0.
     70,           0., -0.100000001
     71, -0.300000012,           0.
     72, -0.200000003, -0.100000001
     73,         -0.5,           0.
     74, -0.400000006, -0.100000001
     75,  0.300000012, -0.200000003
     76,  0.400000006, -0.300000012
     77,          0.5, -0.200000003
     78,  0.100000001, -0.200000003
     79,  0.200000003, -0.300000012
     80, -0.100000001, -0.200000003
     81,           0., -0.300000012
     82, -0.300000012, -0.200000003
     83, -0.200000003, -0.300000012
     84,         -0.5, -0.200000003
     85, -0.400000006, -0.300000012
     86,  0.300000012, -0.400000006
     87,  0.400000006,         -0.5
     88,          0.5, -0.400000006
     89,  0.100000001, -0.400000006
     90,  0.200000003,         -0.5
     91, -0.100000001, -0.400000006
     92,           0.,         -0.5
     93, -0.300000012, -0.400000006
     94, -0.200000003,         -0.5
     95,         -0.5, -0.400000006
     96, -0.400000006,         -0.5
*Element, type=CPS8R
 1,  1,  2,  8,  7, 37, 38, 39, 40
 2,  2,  3,  9,  8, 41, 42, 43, 38
 3,  3,  4, 10,  9, 44, 45, 46, 42
 4,  4,  5, 11, 10, 47, 48, 49, 45
 5,  5,  6, 12, 11, 50, 51, 52, 48
 6,  7,  8, 14, 13, 39, 53, 54, 55
 7,  8,  9, 15, 14, 43, 56, 57, 53
 8,  9, 10, 16, 15, 46, 58, 59, 56
 9, 10, 11, 17, 16, 49, 60, 61, 58
10, 11, 12, 18, 17, 52, 62, 63, 60
11, 13, 14, 20, 19, 54, 64, 65, 66
12, 14, 15, 21, 20, 57, 67, 68, 64
13, 15, 16, 22, 21, 59, 69, 70, 67
14, 16, 17, 23, 22, 61, 71, 72, 69
15, 17, 18, 24, 23, 63, 73, 74, 71
16, 19, 20, 26, 25, 65, 75, 76, 77
17, 20, 21, 27, 26, 68, 78, 79, 75
18, 21, 22, 28, 27, 70, 80, 81, 78
19, 22, 23, 29, 28, 72, 82, 83, 80
20, 23, 24, 30, 29, 74, 84, 85, 82
21, 25, 26, 32, 31, 76, 86, 87, 88
22, 26, 27, 33, 32, 79, 89, 90, 86
23, 27, 28, 34, 33, 81, 91, 92, 89
24, 28, 29, 35, 34, 83, 93, 94, 91
25, 29, 30, 36, 35, 85, 95, 96, 93
*Nset, nset=Set-3, generate
  1,  96,   1
*Elset, elset=Set-3, generate
  1,  25,   1
*Nset, nset=Set-4, generate
  1,  96,   1
*Elset, elset=Set-4, generate
  1,  25,   1
** Section: Section-1
*Solid Section, elset=Set-4, material=Material-1
,
*End Part
**  
**
** ASSEMBLY
**
*Assembly, name=Assembly
**  
*Instance, name=plate-1, part=plate
*End Instance
**  
*Nset, nset=Set-3, instance=plate-1
  6, 12, 18, 24, 30, 36, 51, 62, 73, 84, 95
*Elset, elset=Set-3, instance=plate-1, generate
  5,  25,   5
*Nset, nset=Set-4, instance=plate-1, generate
  1,  96,   1
*Elset, elset=Set-4, instance=plate-1, generate
  1,  25,   1
*Elset, elset=_Surf-1_S4, internal, instance=plate-1, generate
  1,  21,   5
*Surface, type=ELEMENT, name=Surf-1
_Surf-1_S4, S4
*End Assembly
** 
** MATERIALS
** 
*Material, name=Material-1
*Conductivity
1.,
** ----------------------------------------------------------------
** 
** STEP: analysis
** 
*Step, name=analysis, nlgeom=NO
*Heat Transfer, steady state, deltmx=0.
1., 1., 1e-05, 1., 
** 
** BOUNDARY CONDITIONS
** 
** Name: dirichlet_left Type: Temperature
*Boundary
Set-3, 11, 11
** 
** LOADS
** 
** Name: constant_source   Type: Body heat flux
*Dflux
Set-4, BF, 2.
** Name: neumann_right   Type: Surface heat flux
*Dsflux
Surf-1, S, -2.
** 
** OUTPUT REQUESTS
** 
*Restart, write, frequency=0
** 
** FIELD OUTPUT: F-Output-2
** 
*Output, field
*Node Output
COORD, NT, RFL
*Element Output, directions=YES
HFL, 
** 
** FIELD OUTPUT: F-Output-1
** 
*Output, field, variable=PRESELECT
*Output, history, frequency=0
*End Step
